 {
  "errno":0,
  "data":{
    "total":8,
    "pages":4,
    "pageSize":2,
    "page":1,
    "list":[
      {
        "id":1,
        "userName":"59460469111",
        "name":"xsksk"
      },
      {
        "id":2,
        "userName":"62000862194",
        "name":"48076453290"
      }
    ]
  },
  "errmsg":"成功"
}